%YAML 1.1
%TAG !u! tag:unity3d.com,2011:
--- !u!65 &7992391231896975928
BoxCollider:
  m_ObjectHideFlags: 0
  m_CorrespondingSourceObject: {fileID: 0}
  m_PrefabInstance: {fileID: 0}
  m_PrefabAsset: {fileID: 0}
  m_GameObject: {fileID: 1131906020835994023}
  m_Material: {fileID: 0}
  m_IsTrigger: 0
  m_Enabled: 1
  serializedVersion: 2
  m_Size: {x: 2.5958068, y: 1.5203464, z: 1.5699213}
  m_Center: {x: 0.015241742, y: 0.6322874, z: -0.061376333}
--- !u!1 &2477899122959688048
GameObject:
  m_ObjectHideFlags: 0
  m_CorrespondingSourceObject: {fileID: 0}
  m_PrefabInstance: {fileID: 0}
  m_PrefabAsset: {fileID: 0}
  serializedVersion: 6
  m_Component:
  - component: {fileID: 2406873782250882278}
  - component: {fileID: 5837353602947698704}
  m_Layer: 2
  m_Name: Moss Rock Small
  m_TagString: Untagged
  m_Icon: {fileID: 0}
  m_NavMeshLayer: 0
  m_StaticEditorFlags: 0
  m_IsActive: 1
--- !u!4 &2406873782250882278
Transform:
  m_ObjectHideFlags: 0
  m_CorrespondingSourceObject: {fileID: 0}
  m_PrefabInstance: {fileID: 0}
  m_PrefabAsset: {fileID: 0}
  m_GameObject: {fileID: 2477899122959688048}
  m_LocalRotation: {x: 0, y: 0, z: 0, w: 1}
  m_LocalPosition: {x: -125, y: 2.5, z: 145}
  m_LocalScale: {x: 1, y: 1, z: 1}
  m_Children:
  - {fileID: 1134039484374193835}
  m_Father: {fileID: 0}
  m_RootOrder: 0
  m_LocalEulerAnglesHint: {x: 0, y: 0, z: 0}
--- !u!114 &5837353602947698704
MonoBehaviour:
  m_ObjectHideFlags: 0
  m_CorrespondingSourceObject: {fileID: 0}
  m_PrefabInstance: {fileID: 0}
  m_PrefabAsset: {fileID: 0}
  m_GameObject: {fileID: 2477899122959688048}
  m_Enabled: 1
  m_EditorHideFlags: 0
  m_Script: {fileID: 11500000, guid: d8be688537cf36e41ac99440f8394674, type: 3}
  m_Name: 
  m_EditorClassIdentifier: 
  OptionalItems: []
  RemovalChance: 0
  RotationRange: {x: 0, y: 360}
  ScaleRange: {x: 0.7, y: 1.3}
--- !u!1001 &1131371365063792745
PrefabInstance:
  m_ObjectHideFlags: 0
  serializedVersion: 2
  m_Modification:
    m_TransformParent: {fileID: 2406873782250882278}
    m_Modifications:
    - target: {fileID: 1731474200146382, guid: 68e8c0f1e23f3f74781154a91fcce3aa, type: 3}
      propertyPath: m_Name
      value: SNature_MossRocks2
      objectReference: {fileID: 0}
    - target: {fileID: 1731474200146382, guid: 68e8c0f1e23f3f74781154a91fcce3aa, type: 3}
      propertyPath: m_Layer
      value: 2
      objectReference: {fileID: 0}
    - target: {fileID: 4392154634456770, guid: 68e8c0f1e23f3f74781154a91fcce3aa, type: 3}
      propertyPath: m_LocalPosition.x
      value: 0
      objectReference: {fileID: 0}
    - target: {fileID: 4392154634456770, guid: 68e8c0f1e23f3f74781154a91fcce3aa, type: 3}
      propertyPath: m_LocalPosition.y
      value: 0
      objectReference: {fileID: 0}
    - target: {fileID: 4392154634456770, guid: 68e8c0f1e23f3f74781154a91fcce3aa, type: 3}
      propertyPath: m_LocalPosition.z
      value: 0
      objectReference: {fileID: 0}
    - target: {fileID: 4392154634456770, guid: 68e8c0f1e23f3f74781154a91fcce3aa, type: 3}
      propertyPath: m_LocalRotation.x
      value: 0
      objectReference: {fileID: 0}
    - target: {fileID: 4392154634456770, guid: 68e8c0f1e23f3f74781154a91fcce3aa, type: 3}
      propertyPath: m_LocalRotation.y
      value: 0
      objectReference: {fileID: 0}
    - target: {fileID: 4392154634456770, guid: 68e8c0f1e23f3f74781154a91fcce3aa, type: 3}
      propertyPath: m_LocalRotation.z
      value: 0
      objectReference: {fileID: 0}
    - target: {fileID: 4392154634456770, guid: 68e8c0f1e23f3f74781154a91fcce3aa, type: 3}
      propertyPath: m_LocalRotation.w
      value: 1
      objectReference: {fileID: 0}
    - target: {fileID: 4392154634456770, guid: 68e8c0f1e23f3f74781154a91fcce3aa, type: 3}
      propertyPath: m_RootOrder
      value: 0
      objectReference: {fileID: 0}
    - target: {fileID: 4392154634456770, guid: 68e8c0f1e23f3f74781154a91fcce3aa, type: 3}
      propertyPath: m_LocalEulerAnglesHint.x
      value: 0
      objectReference: {fileID: 0}
    - target: {fileID: 4392154634456770, guid: 68e8c0f1e23f3f74781154a91fcce3aa, type: 3}
      propertyPath: m_LocalEulerAnglesHint.y
      value: 0
      objectReference: {fileID: 0}
    - target: {fileID: 4392154634456770, guid: 68e8c0f1e23f3f74781154a91fcce3aa, type: 3}
      propertyPath: m_LocalEulerAnglesHint.z
      value: 0
      objectReference: {fileID: 0}
    - target: {fileID: 4392154634456770, guid: 68e8c0f1e23f3f74781154a91fcce3aa, type: 3}
      propertyPath: m_LocalScale.x
      value: 3
      objectReference: {fileID: 0}
    - target: {fileID: 4392154634456770, guid: 68e8c0f1e23f3f74781154a91fcce3aa, type: 3}
      propertyPath: m_LocalScale.y
      value: 3
      objectReference: {fileID: 0}
    - target: {fileID: 4392154634456770, guid: 68e8c0f1e23f3f74781154a91fcce3aa, type: 3}
      propertyPath: m_LocalScale.z
      value: 3
      objectReference: {fileID: 0}
    m_RemovedComponents: []
  m_SourcePrefab: {fileID: 100100000, guid: 68e8c0f1e23f3f74781154a91fcce3aa, type: 3}
--- !u!1 &1131906020835994023 stripped
GameObject:
  m_CorrespondingSourceObject: {fileID: 1731474200146382, guid: 68e8c0f1e23f3f74781154a91fcce3aa,
    type: 3}
  m_PrefabInstance: {fileID: 1131371365063792745}
  m_PrefabAsset: {fileID: 0}
--- !u!4 &1134039484374193835 stripped
Transform:
  m_CorrespondingSourceObject: {fileID: 4392154634456770, guid: 68e8c0f1e23f3f74781154a91fcce3aa,
    type: 3}
  m_PrefabInstance: {fileID: 1131371365063792745}
  m_PrefabAsset: {fileID: 0}
