%YAML 1.1
%TAG !u! tag:unity3d.com,2011:
--- !u!1 &2248061188054475535
GameObject:
  m_ObjectHideFlags: 0
  m_CorrespondingSourceObject: {fileID: 0}
  m_PrefabInstance: {fileID: 0}
  m_PrefabAsset: {fileID: 0}
  serializedVersion: 6
  m_Component:
  - component: {fileID: 9121104300428984295}
  - component: {fileID: 92210589898216573}
  m_Layer: 2
  m_Name: Rocks Black
  m_TagString: Untagged
  m_Icon: {fileID: 0}
  m_NavMeshLayer: 0
  m_StaticEditorFlags: 0
  m_IsActive: 1
--- !u!4 &9121104300428984295
Transform:
  m_ObjectHideFlags: 0
  m_CorrespondingSourceObject: {fileID: 0}
  m_PrefabInstance: {fileID: 0}
  m_PrefabAsset: {fileID: 0}
  m_GameObject: {fileID: 2248061188054475535}
  m_LocalRotation: {x: 0, y: 0, z: 0, w: 1}
  m_LocalPosition: {x: -55, y: 2.5, z: 125}
  m_LocalScale: {x: 1, y: 1, z: 1}
  m_Children:
  - {fileID: 5560273123792782175}
  m_Father: {fileID: 0}
  m_RootOrder: 0
  m_LocalEulerAnglesHint: {x: 0, y: 0, z: 0}
--- !u!114 &92210589898216573
MonoBehaviour:
  m_ObjectHideFlags: 0
  m_CorrespondingSourceObject: {fileID: 0}
  m_PrefabInstance: {fileID: 0}
  m_PrefabAsset: {fileID: 0}
  m_GameObject: {fileID: 2248061188054475535}
  m_Enabled: 1
  m_EditorHideFlags: 0
  m_Script: {fileID: 11500000, guid: d8be688537cf36e41ac99440f8394674, type: 3}
  m_Name: 
  m_EditorClassIdentifier: 
  OptionalItems: []
  RemovalChance: 0
  RotationRange: {x: 0, y: 360}
  ScaleRange: {x: 0.7, y: 1.2}
--- !u!65 &1258727853908985574
BoxCollider:
  m_ObjectHideFlags: 0
  m_CorrespondingSourceObject: {fileID: 0}
  m_PrefabInstance: {fileID: 0}
  m_PrefabAsset: {fileID: 0}
  m_GameObject: {fileID: 5560273123792949193}
  m_Material: {fileID: 0}
  m_IsTrigger: 0
  m_Enabled: 1
  serializedVersion: 2
  m_Size: {x: 4, y: 1.5, z: 2.5}
  m_Center: {x: 0.0031859875, y: 0.7130729, z: 0.18935454}
--- !u!1001 &5560273123792994267
PrefabInstance:
  m_ObjectHideFlags: 0
  serializedVersion: 2
  m_Modification:
    m_TransformParent: {fileID: 9121104300428984295}
    m_Modifications:
    - target: {fileID: 110610, guid: 75283e9ef15245c4aab126ec6525dd2a, type: 3}
      propertyPath: m_Name
      value: Rock Type1 01
      objectReference: {fileID: 0}
    - target: {fileID: 110610, guid: 75283e9ef15245c4aab126ec6525dd2a, type: 3}
      propertyPath: m_Layer
      value: 2
      objectReference: {fileID: 0}
    - target: {fileID: 474244, guid: 75283e9ef15245c4aab126ec6525dd2a, type: 3}
      propertyPath: m_LocalPosition.x
      value: 0
      objectReference: {fileID: 0}
    - target: {fileID: 474244, guid: 75283e9ef15245c4aab126ec6525dd2a, type: 3}
      propertyPath: m_LocalPosition.y
      value: 0
      objectReference: {fileID: 0}
    - target: {fileID: 474244, guid: 75283e9ef15245c4aab126ec6525dd2a, type: 3}
      propertyPath: m_LocalPosition.z
      value: 0
      objectReference: {fileID: 0}
    - target: {fileID: 474244, guid: 75283e9ef15245c4aab126ec6525dd2a, type: 3}
      propertyPath: m_LocalRotation.x
      value: 0
      objectReference: {fileID: 0}
    - target: {fileID: 474244, guid: 75283e9ef15245c4aab126ec6525dd2a, type: 3}
      propertyPath: m_LocalRotation.y
      value: 0
      objectReference: {fileID: 0}
    - target: {fileID: 474244, guid: 75283e9ef15245c4aab126ec6525dd2a, type: 3}
      propertyPath: m_LocalRotation.z
      value: 0
      objectReference: {fileID: 0}
    - target: {fileID: 474244, guid: 75283e9ef15245c4aab126ec6525dd2a, type: 3}
      propertyPath: m_LocalRotation.w
      value: 1
      objectReference: {fileID: 0}
    - target: {fileID: 474244, guid: 75283e9ef15245c4aab126ec6525dd2a, type: 3}
      propertyPath: m_RootOrder
      value: 0
      objectReference: {fileID: 0}
    - target: {fileID: 474244, guid: 75283e9ef15245c4aab126ec6525dd2a, type: 3}
      propertyPath: m_LocalEulerAnglesHint.x
      value: 0
      objectReference: {fileID: 0}
    - target: {fileID: 474244, guid: 75283e9ef15245c4aab126ec6525dd2a, type: 3}
      propertyPath: m_LocalEulerAnglesHint.y
      value: 0
      objectReference: {fileID: 0}
    - target: {fileID: 474244, guid: 75283e9ef15245c4aab126ec6525dd2a, type: 3}
      propertyPath: m_LocalEulerAnglesHint.z
      value: 0
      objectReference: {fileID: 0}
    - target: {fileID: 474244, guid: 75283e9ef15245c4aab126ec6525dd2a, type: 3}
      propertyPath: m_LocalScale.x
      value: 2
      objectReference: {fileID: 0}
    - target: {fileID: 474244, guid: 75283e9ef15245c4aab126ec6525dd2a, type: 3}
      propertyPath: m_LocalScale.y
      value: 3
      objectReference: {fileID: 0}
    - target: {fileID: 474244, guid: 75283e9ef15245c4aab126ec6525dd2a, type: 3}
      propertyPath: m_LocalScale.z
      value: 2
      objectReference: {fileID: 0}
    m_RemovedComponents: []
  m_SourcePrefab: {fileID: 100100000, guid: 75283e9ef15245c4aab126ec6525dd2a, type: 3}
--- !u!1 &5560273123792949193 stripped
GameObject:
  m_CorrespondingSourceObject: {fileID: 110610, guid: 75283e9ef15245c4aab126ec6525dd2a,
    type: 3}
  m_PrefabInstance: {fileID: 5560273123792994267}
  m_PrefabAsset: {fileID: 0}
--- !u!4 &5560273123792782175 stripped
Transform:
  m_CorrespondingSourceObject: {fileID: 474244, guid: 75283e9ef15245c4aab126ec6525dd2a,
    type: 3}
  m_PrefabInstance: {fileID: 5560273123792994267}
  m_PrefabAsset: {fileID: 0}
