%YAML 1.1
%TAG !u! tag:unity3d.com,2011:
--- !u!1 &8921941780800058005
GameObject:
  m_ObjectHideFlags: 0
  m_CorrespondingSourceObject: {fileID: 0}
  m_PrefabInstance: {fileID: 0}
  m_PrefabAsset: {fileID: 0}
  serializedVersion: 6
  m_Component:
  - component: {fileID: 8921941780800058004}
  - component: {fileID: 7962813228521257006}
  m_Layer: 0
  m_Name: Big Scroll
  m_TagString: Untagged
  m_Icon: {fileID: 0}
  m_NavMeshLayer: 0
  m_StaticEditorFlags: 0
  m_IsActive: 1
--- !u!4 &8921941780800058004
Transform:
  m_ObjectHideFlags: 0
  m_CorrespondingSourceObject: {fileID: 0}
  m_PrefabInstance: {fileID: 0}
  m_PrefabAsset: {fileID: 0}
  m_GameObject: {fileID: 8921941780800058005}
  m_LocalRotation: {x: 0, y: 0, z: 0, w: 1}
  m_LocalPosition: {x: 0, y: 0, z: 0}
  m_LocalScale: {x: 1, y: 1, z: 1}
  m_Children:
  - {fileID: 6878563219176489254}
  m_Father: {fileID: 0}
  m_RootOrder: 0
  m_LocalEulerAnglesHint: {x: 0, y: 0, z: 0}
--- !u!114 &7962813228521257006
MonoBehaviour:
  m_ObjectHideFlags: 0
  m_CorrespondingSourceObject: {fileID: 0}
  m_PrefabInstance: {fileID: 0}
  m_PrefabAsset: {fileID: 0}
  m_GameObject: {fileID: 8921941780800058005}
  m_Enabled: 1
  m_EditorHideFlags: 0
  m_Script: {fileID: 11500000, guid: d8be688537cf36e41ac99440f8394674, type: 3}
  m_Name: 
  m_EditorClassIdentifier: 
  OptionalItems: []
  RemovalChance: 0
  RotationRange: {x: 0, y: 360}
  ScaleRange: {x: 0.9, y: 1.2}
--- !u!1001 &8921941779164080919
PrefabInstance:
  m_ObjectHideFlags: 0
  serializedVersion: 2
  m_Modification:
    m_TransformParent: {fileID: 8921941780800058004}
    m_Modifications:
    - target: {fileID: 2640387059949778449, guid: 16e7a0741a070bb47bebfd085ef8cddf,
        type: 3}
      propertyPath: m_Name
      value: Scroll_Big
      objectReference: {fileID: 0}
    - target: {fileID: 2640387059950266929, guid: 16e7a0741a070bb47bebfd085ef8cddf,
        type: 3}
      propertyPath: m_LocalPosition.x
      value: 0
      objectReference: {fileID: 0}
    - target: {fileID: 2640387059950266929, guid: 16e7a0741a070bb47bebfd085ef8cddf,
        type: 3}
      propertyPath: m_LocalPosition.y
      value: 0
      objectReference: {fileID: 0}
    - target: {fileID: 2640387059950266929, guid: 16e7a0741a070bb47bebfd085ef8cddf,
        type: 3}
      propertyPath: m_LocalPosition.z
      value: -3.4
      objectReference: {fileID: 0}
    - target: {fileID: 2640387059950266929, guid: 16e7a0741a070bb47bebfd085ef8cddf,
        type: 3}
      propertyPath: m_LocalRotation.x
      value: 0.6830127
      objectReference: {fileID: 0}
    - target: {fileID: 2640387059950266929, guid: 16e7a0741a070bb47bebfd085ef8cddf,
        type: 3}
      propertyPath: m_LocalRotation.y
      value: -0.18301274
      objectReference: {fileID: 0}
    - target: {fileID: 2640387059950266929, guid: 16e7a0741a070bb47bebfd085ef8cddf,
        type: 3}
      propertyPath: m_LocalRotation.z
      value: -0.18301274
      objectReference: {fileID: 0}
    - target: {fileID: 2640387059950266929, guid: 16e7a0741a070bb47bebfd085ef8cddf,
        type: 3}
      propertyPath: m_LocalRotation.w
      value: -0.6830127
      objectReference: {fileID: 0}
    - target: {fileID: 2640387059950266929, guid: 16e7a0741a070bb47bebfd085ef8cddf,
        type: 3}
      propertyPath: m_RootOrder
      value: 0
      objectReference: {fileID: 0}
    - target: {fileID: 2640387059950266929, guid: 16e7a0741a070bb47bebfd085ef8cddf,
        type: 3}
      propertyPath: m_LocalEulerAnglesHint.x
      value: 270
      objectReference: {fileID: 0}
    - target: {fileID: 2640387059950266929, guid: 16e7a0741a070bb47bebfd085ef8cddf,
        type: 3}
      propertyPath: m_LocalEulerAnglesHint.y
      value: 30
      objectReference: {fileID: 0}
    - target: {fileID: 2640387059950266929, guid: 16e7a0741a070bb47bebfd085ef8cddf,
        type: 3}
      propertyPath: m_LocalEulerAnglesHint.z
      value: 0
      objectReference: {fileID: 0}
    - target: {fileID: 2640387059950266929, guid: 16e7a0741a070bb47bebfd085ef8cddf,
        type: 3}
      propertyPath: m_LocalScale.y
      value: 500
      objectReference: {fileID: 0}
    - target: {fileID: 2640387059950266929, guid: 16e7a0741a070bb47bebfd085ef8cddf,
        type: 3}
      propertyPath: m_LocalScale.z
      value: 500
      objectReference: {fileID: 0}
    - target: {fileID: 2640387059950266929, guid: 16e7a0741a070bb47bebfd085ef8cddf,
        type: 3}
      propertyPath: m_LocalScale.x
      value: 500
      objectReference: {fileID: 0}
    m_RemovedComponents:
    - {fileID: 2640387059949778450, guid: 16e7a0741a070bb47bebfd085ef8cddf, type: 3}
  m_SourcePrefab: {fileID: 100100000, guid: 16e7a0741a070bb47bebfd085ef8cddf, type: 3}
--- !u!4 &6878563219176489254 stripped
Transform:
  m_CorrespondingSourceObject: {fileID: 2640387059950266929, guid: 16e7a0741a070bb47bebfd085ef8cddf,
    type: 3}
  m_PrefabInstance: {fileID: 8921941779164080919}
  m_PrefabAsset: {fileID: 0}
