%YAML 1.1
%TAG !u! tag:unity3d.com,2011:
--- !u!1 &6968276441955948850
GameObject:
  m_ObjectHideFlags: 0
  m_CorrespondingSourceObject: {fileID: 0}
  m_PrefabInstance: {fileID: 0}
  m_PrefabAsset: {fileID: 0}
  serializedVersion: 6
  m_Component:
  - component: {fileID: 7686811468879020399}
  - component: {fileID: 6353585790035880878}
  m_Layer: 0
  m_Name: Torch
  m_TagString: Untagged
  m_Icon: {fileID: 0}
  m_NavMeshLayer: 0
  m_StaticEditorFlags: 0
  m_IsActive: 1
--- !u!4 &7686811468879020399
Transform:
  m_ObjectHideFlags: 0
  m_CorrespondingSourceObject: {fileID: 0}
  m_PrefabInstance: {fileID: 0}
  m_PrefabAsset: {fileID: 0}
  m_GameObject: {fileID: 6968276441955948850}
  m_LocalRotation: {x: 0, y: 0, z: 0, w: 1}
  m_LocalPosition: {x: 0, y: 0, z: 0}
  m_LocalScale: {x: 1, y: 1, z: 1}
  m_Children:
  - {fileID: 2519602445877530262}
  m_Father: {fileID: 0}
  m_RootOrder: 0
  m_LocalEulerAnglesHint: {x: 0, y: 0, z: 0}
--- !u!82 &6353585790035880878
AudioSource:
  m_ObjectHideFlags: 0
  m_CorrespondingSourceObject: {fileID: 0}
  m_PrefabInstance: {fileID: 0}
  m_PrefabAsset: {fileID: 0}
  m_GameObject: {fileID: 6968276441955948850}
  m_Enabled: 1
  serializedVersion: 4
  OutputAudioMixerGroup: {fileID: 2580002059515505793, guid: b892a4a1069d8b240a88bae9b7fa03f9,
    type: 2}
  m_audioClip: {fileID: 8300000, guid: 17bcc6b12e47bae4080f269641b2b11d, type: 3}
  m_PlayOnAwake: 1
  m_Volume: 0.08
  m_Pitch: 1
  Loop: 1
  Mute: 0
  Spatialize: 0
  SpatializePostEffects: 0
  Priority: 128
  DopplerLevel: 1
  MinDistance: 3
  MaxDistance: 30
  Pan2D: 0
  rolloffMode: 2
  BypassEffects: 0
  BypassListenerEffects: 0
  BypassReverbZones: 0
  rolloffCustomCurve:
    serializedVersion: 2
    m_Curve:
    - serializedVersion: 3
      time: 0.15
      value: 1
      inSlope: -6.6693425
      outSlope: -6.6693425
      tangentMode: 0
      weightedMode: 0
      inWeight: 0
      outWeight: 0
    - serializedVersion: 3
      time: 0.3
      value: 0.5
      inSlope: -1.6673356
      outSlope: -1.6673356
      tangentMode: 0
      weightedMode: 0
      inWeight: 0
      outWeight: 0
    - serializedVersion: 3
      time: 0.5757843
      value: 0.19908142
      inSlope: -0.8240246
      outSlope: -0.8240246
      tangentMode: 0
      weightedMode: 0
      inWeight: 0
      outWeight: 0.40311414
    - serializedVersion: 3
      time: 1
      value: 0
      inSlope: -0.15005991
      outSlope: -0.15005991
      tangentMode: 0
      weightedMode: 0
      inWeight: 0
      outWeight: 0
    m_PreInfinity: 2
    m_PostInfinity: 2
    m_RotationOrder: 4
  panLevelCustomCurve:
    serializedVersion: 2
    m_Curve:
    - serializedVersion: 3
      time: 0
      value: 1
      inSlope: 0
      outSlope: 0
      tangentMode: 0
      weightedMode: 0
      inWeight: 0.33333334
      outWeight: 0.33333334
    m_PreInfinity: 2
    m_PostInfinity: 2
    m_RotationOrder: 4
  spreadCustomCurve:
    serializedVersion: 2
    m_Curve:
    - serializedVersion: 3
      time: 0
      value: 0.41111112
      inSlope: 0
      outSlope: 0
      tangentMode: 0
      weightedMode: 0
      inWeight: 0.33333334
      outWeight: 0.33333334
    m_PreInfinity: 2
    m_PostInfinity: 2
    m_RotationOrder: 4
  reverbZoneMixCustomCurve:
    serializedVersion: 2
    m_Curve:
    - serializedVersion: 3
      time: 0
      value: 1
      inSlope: 0
      outSlope: 0
      tangentMode: 0
      weightedMode: 0
      inWeight: 0.33333334
      outWeight: 0.33333334
    m_PreInfinity: 2
    m_PostInfinity: 2
    m_RotationOrder: 4
--- !u!1001 &5453958919786026601
PrefabInstance:
  m_ObjectHideFlags: 0
  serializedVersion: 2
  m_Modification:
    m_TransformParent: {fileID: 7686811468879020399}
    m_Modifications:
    - target: {fileID: 7586093321435195189, guid: 4b437f1c2454a2c409b1b7f35e69d661,
        type: 3}
      propertyPath: m_StaticEditorFlags
      value: 0
      objectReference: {fileID: 0}
    - target: {fileID: 7586093321435195190, guid: 4b437f1c2454a2c409b1b7f35e69d661,
        type: 3}
      propertyPath: m_DrawHalo
      value: 0
      objectReference: {fileID: 0}
    - target: {fileID: 7586093321435195190, guid: 4b437f1c2454a2c409b1b7f35e69d661,
        type: 3}
      propertyPath: m_Range
      value: 3
      objectReference: {fileID: 0}
    - target: {fileID: 7586093321435195191, guid: 4b437f1c2454a2c409b1b7f35e69d661,
        type: 3}
      propertyPath: m_LocalPosition.z
      value: 0.352
      objectReference: {fileID: 0}
    - target: {fileID: 7586093321967142111, guid: 4b437f1c2454a2c409b1b7f35e69d661,
        type: 3}
      propertyPath: m_Name
      value: Torch_Wall
      objectReference: {fileID: 0}
    - target: {fileID: 7586093321967573247, guid: 4b437f1c2454a2c409b1b7f35e69d661,
        type: 3}
      propertyPath: m_LocalPosition.x
      value: 0
      objectReference: {fileID: 0}
    - target: {fileID: 7586093321967573247, guid: 4b437f1c2454a2c409b1b7f35e69d661,
        type: 3}
      propertyPath: m_LocalPosition.y
      value: 4
      objectReference: {fileID: 0}
    - target: {fileID: 7586093321967573247, guid: 4b437f1c2454a2c409b1b7f35e69d661,
        type: 3}
      propertyPath: m_LocalPosition.z
      value: 5
      objectReference: {fileID: 0}
    - target: {fileID: 7586093321967573247, guid: 4b437f1c2454a2c409b1b7f35e69d661,
        type: 3}
      propertyPath: m_LocalRotation.x
      value: -0.5
      objectReference: {fileID: 0}
    - target: {fileID: 7586093321967573247, guid: 4b437f1c2454a2c409b1b7f35e69d661,
        type: 3}
      propertyPath: m_LocalRotation.y
      value: -0.5
      objectReference: {fileID: 0}
    - target: {fileID: 7586093321967573247, guid: 4b437f1c2454a2c409b1b7f35e69d661,
        type: 3}
      propertyPath: m_LocalRotation.z
      value: -0.5
      objectReference: {fileID: 0}
    - target: {fileID: 7586093321967573247, guid: 4b437f1c2454a2c409b1b7f35e69d661,
        type: 3}
      propertyPath: m_LocalRotation.w
      value: 0.5
      objectReference: {fileID: 0}
    - target: {fileID: 7586093321967573247, guid: 4b437f1c2454a2c409b1b7f35e69d661,
        type: 3}
      propertyPath: m_RootOrder
      value: 0
      objectReference: {fileID: 0}
    - target: {fileID: 7586093321967573247, guid: 4b437f1c2454a2c409b1b7f35e69d661,
        type: 3}
      propertyPath: m_LocalEulerAnglesHint.x
      value: -90
      objectReference: {fileID: 0}
    - target: {fileID: 7586093321967573247, guid: 4b437f1c2454a2c409b1b7f35e69d661,
        type: 3}
      propertyPath: m_LocalEulerAnglesHint.y
      value: -90
      objectReference: {fileID: 0}
    - target: {fileID: 7586093321967573247, guid: 4b437f1c2454a2c409b1b7f35e69d661,
        type: 3}
      propertyPath: m_LocalEulerAnglesHint.z
      value: 0
      objectReference: {fileID: 0}
    - target: {fileID: 7586093321967573247, guid: 4b437f1c2454a2c409b1b7f35e69d661,
        type: 3}
      propertyPath: m_LocalScale.x
      value: 5
      objectReference: {fileID: 0}
    - target: {fileID: 7586093321967573247, guid: 4b437f1c2454a2c409b1b7f35e69d661,
        type: 3}
      propertyPath: m_LocalScale.y
      value: 5
      objectReference: {fileID: 0}
    - target: {fileID: 7586093321967573247, guid: 4b437f1c2454a2c409b1b7f35e69d661,
        type: 3}
      propertyPath: m_LocalScale.z
      value: 4.6
      objectReference: {fileID: 0}
    m_RemovedComponents: []
  m_SourcePrefab: {fileID: 100100000, guid: 4b437f1c2454a2c409b1b7f35e69d661, type: 3}
--- !u!4 &2519602445877530262 stripped
Transform:
  m_CorrespondingSourceObject: {fileID: 7586093321967573247, guid: 4b437f1c2454a2c409b1b7f35e69d661,
    type: 3}
  m_PrefabInstance: {fileID: 5453958919786026601}
  m_PrefabAsset: {fileID: 0}
